<svg xmlns="http://www.w3.org/2000/svg" width="29.333" height="17.825" viewBox="0 0 29.333 17.825">
  <g id="Group_7" data-name="Group 7" transform="translate(-314.625 -186.27)" opacity="0.4">
    <g id="Group_6" data-name="Group 6">
      <path id="Path_3" data-name="Path 3" d="M340.061,195.018h2.9v-2.607a.985.985,0,0,0-.983-.984H325.652c.052.107.1.213.149.322a6.326,6.326,0,0,1,.5,2.463,5.983,5.983,0,0,1-.052.806Z" fill="#482080"/>
      <path id="Path_4" data-name="Path 4" d="M319.973,189.016c-.11,0-.216,0-.323.01v5.988H325.1a5.1,5.1,0,0,0,.062-.805,5.2,5.2,0,0,0-5.193-5.193Z" fill="#482080"/>
      <path id="Path_5" data-name="Path 5" d="M315.592,204.1h1.963a.966.966,0,0,0,.967-.967v-3.085h21.539v3.085a.966.966,0,0,0,.967.967h1.963a.966.966,0,0,0,.967-.967v-6.014a.966.966,0,0,0-.967-.967H318.522v-8.91a.966.966,0,0,0-.967-.967h-1.963a.966.966,0,0,0-.967.967v15.891A.967.967,0,0,0,315.592,204.1Z" fill="#482080"/>
    </g>
  </g>
</svg>
