<svg xmlns="http://www.w3.org/2000/svg" width="74.971" height="51.753" viewBox="0 0 74.971 51.753">
  <g id="Group_5" data-name="Group 5" transform="translate(-290.722 -53.011)">
    <g id="Group_3" data-name="Group 3">
      <g id="Group_2" data-name="Group 2">
        <path id="Path_1" data-name="Path 1" d="M304.773,92l48.036,12.656a3.054,3.054,0,0,0,3.739-2.158l9.04-33.747a3.053,3.053,0,0,0-2.158-3.738l-47.327-12L290.722,67.666Zm6.621-22.333a4.829,4.829,0,1,1-6.6-1.768A4.83,4.83,0,0,1,311.394,69.67Z" fill="#41a48b" opacity="0.3"/>
      </g>
      <path id="Path_2" data-name="Path 2" d="M298.849,76.913a9.657,9.657,0,1,0,3.534-13.192A9.658,9.658,0,0,0,298.849,76.913Zm12.545-7.243a4.829,4.829,0,1,1-6.6-1.768A4.83,4.83,0,0,1,311.394,69.67Z" fill="#23574b"/>
    </g>
     
  </g>
</svg>
